#FIG 3.2  Produced by xfig version 3.2.5c
Landscape
Center
Inches
Letter  
100.00
Single
-2
1200 2
0 32 #000000
6 7710 3135 9540 4515
2 2 0 2 0 7 50 -1 20 0.000 0 0 -1 0 0 5
	 7725 3150 9525 3150 9525 4500 7725 4500 7725 3150
4 0 0 50 -1 2 16 0.0000 4 240 1680 7800 4185 m5: Ty5 -> Ty\001
4 0 0 50 -1 2 16 0.0000 4 240 1680 7800 3600 m4: Ty4 -> Ty\001
-6
6 750 2775 2700 4275
6 750 2775 2700 4275
2 2 0 2 0 7 50 -1 20 0.000 0 0 -1 0 0 5
	 825 2850 2625 2850 2625 4200 825 4200 825 2850
4 0 0 50 -1 2 16 0.0000 4 240 1680 900 3885 m2: Ty2 -> Ty\001
4 0 0 50 -1 2 16 0.0000 4 240 1680 900 3300 m1: Ty1 -> Ty\001
-6
-6
6 525 6675 2550 7575
2 2 0 2 0 7 50 -1 20 0.000 0 0 -1 0 0 5
	 600 6750 2475 6750 2475 7500 600 7500 600 6750
4 0 0 50 -1 2 16 0.0000 4 240 1680 675 7200 m3: Ty3 -> Ty\001
-6
2 1 1 2 0 7 48 -1 -1 4.000 0 0 -1 1 0 2
	1 1 1.00 60.00 120.00
	 7350 5625 7650 4575
2 1 1 2 0 7 48 -1 -1 4.000 0 0 -1 1 0 2
	1 1 1.00 60.00 120.00
	 3225 6300 2550 6675
2 1 1 2 0 7 48 -1 -1 4.000 0 0 -1 1 0 2
	1 1 1.00 60.00 120.00
	 3225 4800 2700 4275
2 5 0 1 0 -1 51 -1 -1 0.000 0 0 -1 0 0 5
	0 PrimitiveExample1BG.png
	 2205 3615 8325 3615 8325 7575 2205 7575 2205 3615
