#FIG 3.2  Produced by xfig version 3.2.5b
Landscape
Center
Inches
Letter  
100.00
Single
-2
1200 2
0 32 #000000
2 2 0 2 0 7 50 -1 20 0.000 0 0 -1 0 0 5
	 7875 3075 9675 3075 9675 4425 7875 4425 7875 3075
2 2 0 2 0 7 50 -1 20 0.000 0 0 -1 0 0 5
	 1575 3600 3375 3600 3375 4425 1575 4425 1575 3600
2 1 1 2 0 7 50 -1 -1 4.000 0 0 -1 1 0 3
	2 1 1.00 60.00 120.00
	 4050 4275 3750 3825 3375 3825
2 1 1 2 0 7 49 -1 -1 4.000 0 0 -1 1 0 3
	2 1 1.00 60.00 120.00
	 7200 4425 7425 3750 7875 3750
2 5 0 1 0 -1 52 -1 -1 0.000 0 0 -1 0 0 5
	0 Primitive2Component.png
	 3554 3675 7771 3675 7771 5925 3554 5925 3554 3675
4 0 0 50 -1 2 16 0.0000 4 240 1680 7950 4110 m2: Ty2 -> Ty\001
4 0 0 50 -1 2 16 0.0000 4 240 1680 7950 3525 m1: Ty1 -> Ty\001
4 0 0 50 -1 2 16 0.0000 4 240 1545 1650 3975 m: Ty0 -> Ty\001
