#FIG 3.2  Produced by xfig version 3.2.5b
Landscape
Center
Inches
Letter  
100.00
Single
-2
1200 2
0 32 #000000
6 10500 -7500 15000 -6644
2 1 0 1 0 7 50 -1 -1 0.000 0 0 -1 0 1 2
	2 1 1.00 60.00 120.00
	 14400 -7275 10500 -7275
2 1 0 1 0 7 50 -1 -1 0.000 0 0 -1 0 1 2
	2 1 1.00 60.00 120.00
	 14400 -6675 12525 -6675
2 1 0 1 0 7 50 -1 -1 0.000 0 0 -1 0 1 2
	2 1 1.00 60.00 120.00
	 14400 -6975 11175 -6975
4 0 0 50 -1 18 14 0.0000 6 180 1350 13650 -7350 !Q\\_m1$(p,arg)$\001
4 0 0 50 -1 18 14 0.0000 6 180 1350 13650 -7050 !Q\\_m2$(p,arg)$\001
4 0 0 50 -1 18 14 0.0000 6 180 1350 13650 -6750 !Q\\_m4$(p,arg)$\001
-6
6 3075 -675 6900 900
2 4 1 1 0 7 50 -1 -1 4.000 0 0 12 0 0 5
	 6900 900 6900 -675 3075 -675 3075 900 6900 900
4 0 0 50 -1 18 16 0.0000 4 210 195 3300 -383 A\001
-6
6 10425 -675 12150 825
2 4 1 1 0 7 50 -1 -1 4.000 0 0 9 0 0 5
	 12150 825 12150 -675 10425 -675 10425 825 12150 825
4 0 0 50 -1 18 16 0.0000 4 210 195 10575 -342 B\001
-6
6 3900 -6825 4950 -5100
2 4 0 1 0 7 50 -1 -1 0.000 0 0 17 0 0 5
	 4950 -5100 3900 -5100 3900 -6825 4950 -6825 4950 -5100
4 0 0 50 -1 18 15 0.0000 6 240 600 4110 -5747 Body\001
-6
6 6300 -7425 7830 -6525
2 4 0 1 0 7 50 -1 -1 0.000 0 0 15 0 0 5
	 7650 -6525 6300 -6525 6300 -7425 7650 -7425 7650 -6525
4 0 0 50 -1 18 15 0.0000 6 255 1380 6450 -7065 Deleg\\_$m$\001
-6
6 3825 -4350 5175 -3825
2 4 0 1 0 7 50 -1 -1 0.000 0 0 12 0 0 5
	 5175 -3825 3825 -3825 3825 -4350 5175 -4350 5175 -3825
4 0 0 50 -1 18 15 0.0000 6 240 1245 3900 -4050 Deleg\\_m0\001
-6
6 7275 -4275 8580 -3600
2 4 0 1 0 7 50 -1 -1 0.000 0 0 15 0 0 5
	 8475 -3600 8475 -4275 7275 -4275 7275 -3600 8475 -3600
4 0 0 50 -1 18 16 0.0000 6 270 1230 7350 -3825 CPM\\_m4\001
-6
6 1125 -4350 2325 -3750
2 4 0 1 0 7 50 -1 -1 0.000 0 0 15 0 0 5
	 2325 -3750 2325 -4350 1125 -4350 1125 -3750 2325 -3750
4 0 0 50 -1 18 16 0.0000 6 270 810 1200 -3900 PM(S)\001
-6
6 5534 -1876 7215 -674
2 1 0 1 0 7 50 -1 -1 0.000 0 0 -1 1 0 2
	2 1 1.00 60.00 120.00
	 5784 -676 5634 -1876
2 1 0 1 0 7 50 -1 -1 0.000 0 0 -1 1 0 2
	2 1 1.00 60.00 120.00
	 5691 -674 5541 -1874
4 0 0 50 -1 18 14 0.0000 6 180 1440 5700 -1650 !Q\\_m1$(fa,arg)$\001
4 0 0 50 -1 18 14 0.0000 6 180 1440 5775 -1425 !Q\\_m2$(fa,arg)$\001
-6
6 6150 -5250 7455 -4875
2 4 0 1 0 7 50 -1 -1 0.000 0 0 12 0 0 5
	 7350 -4875 7350 -5250 6150 -5250 6150 -4875 7350 -4875
4 0 0 50 -1 18 16 0.0000 6 270 1230 6225 -4969 CPM\\_m1\001
-6
6 6150 -4800 7455 -4425
2 4 0 1 0 7 50 -1 -1 0.000 0 0 12 0 0 5
	 7350 -4425 7350 -4800 6150 -4800 6150 -4425 7350 -4425
4 0 0 50 -1 18 16 0.0000 6 270 1230 6225 -4519 CPM\\_m2\001
-6
6 900 -3375 3150 -2625
2 4 0 1 0 7 50 -1 20 0.000 0 0 16 0 0 5
	 2686 -2700 900 -2700 900 -3375 2686 -3375 2686 -2700
2 4 0 1 0 7 51 -1 20 0.000 0 0 16 0 0 5
	 2775 -2625 989 -2625 989 -3300 2775 -3300 2775 -2625
4 0 0 50 -1 18 16 0.0000 6 270 2175 975 -3000 SProxy\\_m0$[q]$\001
-6
6 10125 -6075 12405 -5325
2 4 0 1 0 7 50 -1 -1 0.000 0 0 15 0 0 5
	 12000 -5325 12000 -6000 10200 -6000 10200 -5325 12000 -5325
2 4 0 1 0 7 50 -1 20 0.000 0 0 15 0 0 5
	 11925 -5400 10125 -5400 10125 -6075 11925 -6075 11925 -5400
4 0 0 50 -1 18 16 0.0000 6 270 2205 10200 -5625 CProxy\\_m1$[p]$\001
-6
6 10125 -5175 12405 -4425
2 4 0 1 0 7 50 -1 -1 0.000 0 0 15 0 0 5
	 12000 -4425 12000 -5100 10200 -5100 10200 -4425 12000 -4425
2 4 0 1 0 7 50 -1 20 0.000 0 0 15 0 0 5
	 11925 -4500 10125 -4500 10125 -5175 11925 -5175 11925 -4500
4 0 0 50 -1 18 16 0.0000 6 270 2205 10200 -4725 CProxy\\_m2$[p]$\001
-6
6 10575 -4350 12900 -3600
2 4 0 1 0 7 50 -1 -1 0.000 0 0 15 0 0 5
	 12450 -3600 12450 -4275 10650 -4275 10650 -3600 12450 -3600
2 4 0 1 0 7 50 -1 20 0.000 0 0 15 0 0 5
	 12375 -3675 10575 -3675 10575 -4350 12375 -4350 12375 -3675
4 0 0 50 -1 18 16 0.0000 6 270 2205 10650 -3900 CProxy\\_m4$[p]$\001
-6
1 1 0 1 0 7 50 -1 -1 0.000 1 0.0000 12375 -6675 150 75 12375 -6675 12525 -6600
1 1 0 1 0 7 50 -1 -1 0.000 1 0.0000 10350 -7275 150 75 10350 -7275 10500 -7200
1 1 0 1 0 7 50 -1 -1 0.000 1 0.0000 11025 -6975 150 75 11025 -6975 11175 -6900
1 1 0 1 0 7 50 -1 -1 0.000 1 0.0000 1350 -375 150 75 1350 -375 1500 -300
1 1 0 1 0 7 50 -1 -1 0.000 1 0.0000 4200 -3150 150 75 4200 -3150 4350 -3075
2 1 2 1 0 7 50 -1 -1 3.000 0 0 -1 1 0 2
	0 0 1.00 60.00 120.00
	 2625 -6750 3900 -6300
2 1 0 1 0 7 50 -1 -1 0.000 0 0 -1 1 0 2
	2 1 1.00 60.00 120.00
	 12375 -6600 12375 -4275
2 1 0 1 0 7 50 -1 -1 0.000 0 0 -1 1 0 2
	2 1 1.00 60.00 120.00
	 10350 -7200 10350 -6075
2 1 0 1 0 7 50 -1 -1 0.000 0 0 -1 1 0 2
	2 1 1.00 60.00 120.00
	 11025 -6900 11025 -5175
2 1 0 1 0 7 50 -1 -1 0.000 0 0 -1 0 1 2
	2 1 1.00 60.00 120.00
	 10425 375 6900 375
2 4 1 1 0 7 50 -1 -1 4.000 0 0 14 0 0 5
	 12900 1125 12900 -975 2400 -975 2400 1125 12900 1125
2 1 0 1 0 7 49 -1 -1 0.000 0 0 -1 0 1 2
	2 1 1.00 53.87 107.74
	 12225 -6675 7650 -6675
2 1 0 1 0 7 49 -1 -1 0.000 0 0 -1 0 1 2
	2 1 1.00 53.87 107.74
	 10875 -6975 7650 -6975
2 1 0 1 0 7 50 -1 -1 0.000 0 0 -1 0 1 2
	2 1 1.00 60.00 120.00
	 6300 -6900 4950 -6450
2 1 0 1 0 7 50 -1 -1 0.000 0 0 -1 1 1 4
	2 1 1.00 60.00 120.00
	2 1 1.00 60.00 120.00
	 10125 -4725 9450 -4725 7593 -441 6918 -441
2 1 0 1 0 7 50 -1 -1 0.000 0 0 -1 1 1 3
	2 1 1.00 60.00 120.00
	2 1 1.00 60.00 120.00
	 11775 -3600 11775 -1350 11775 -675
2 1 0 1 0 7 50 -1 -1 0.000 0 0 -1 1 0 2
	2 1 1.00 60.00 120.00
	 6900 -5325 6900 -6525
2 1 0 1 0 7 50 -1 -1 0.000 0 0 -1 0 1 2
	2 1 1.00 60.00 120.00
	 4125 -4350 4125 -5100
2 1 0 1 0 7 48 -1 -1 0.000 0 0 -1 1 1 2
	2 1 1.00 60.00 120.00
	2 1 1.00 60.00 120.00
	 2325 -4050 3825 -4050
2 1 0 1 0 7 50 -1 -1 0.000 0 0 -1 0 1 2
	2 1 1.00 60.00 120.00
	 1350 -3300 1350 -3750
2 1 0 1 0 7 50 -1 -1 0.000 0 0 -1 1 0 2
	2 1 1.00 60.00 120.00
	 2400 -375 1500 -375
2 1 0 1 0 7 50 -1 -1 0.000 0 0 -1 0 1 2
	2 1 1.00 60.00 120.00
	 1350 -450 1725 -2625
2 1 0 1 0 7 50 -1 -1 0.000 0 0 -1 0 1 2
	2 1 1.00 60.00 120.00
	 4200 -675 4200 -3075
2 1 0 1 0 7 50 -1 -1 0.000 0 0 -1 1 0 2
	2 1 1.00 60.00 120.00
	 4050 -3150 2775 -3075
2 1 0 1 0 7 50 -1 -1 0.000 0 0 -1 0 1 2
	2 1 1.00 60.00 120.00
	 450 -375 1200 -375
2 4 0 1 0 7 49 -1 -1 0.000 0 0 10 0 0 5
	 2625 -6450 1500 -6450 1500 -7050 2625 -7050 2625 -6450
2 1 0 1 0 7 50 -1 -1 0.000 0 0 -1 0 1 2
	2 1 1.00 60.00 120.00
	 4200 -3225 4200 -3825
2 4 1 1 0 7 50 -1 -1 4.000 0 0 13 0 0 5
	 8625 -3450 8625 -5325 5925 -5325 5925 -3450 8625 -3450
2 1 0 1 0 7 50 -1 -1 0.000 0 0 -1 0 1 2
	2 1 1.00 60.00 120.00
	 1500 -6750 450 -6750
2 1 0 1 0 7 50 -1 -1 0.000 0 0 -1 0 1 2
	2 1 1.00 60.00 120.00
	 6900 450 10425 450
2 1 0 1 0 7 50 -1 -1 0.000 0 0 -1 1 0 3
	2 1 1.00 60.00 120.00
	 10425 -450 8775 -450 7200 -1875
2 1 0 1 0 7 50 -1 -1 0.000 0 0 -1 0 1 2
	2 1 1.00 94.87 189.75
	 10125 -4950 7350 -4725
2 1 0 1 0 7 50 -1 -1 0.000 0 0 -1 0 1 3
	2 1 1.00 94.87 189.75
	 10150 -5814 9625 -5814 7350 -5100
2 1 0 1 0 7 50 -1 -1 0.000 0 0 -1 1 1 4
	2 1 1.00 60.00 120.00
	2 1 1.00 60.00 120.00
	 10125 -5700 9825 -5700 7557 -531 6882 -531
2 1 0 1 0 7 50 -1 -1 0.000 0 0 -1 0 1 3
	2 1 1.00 94.87 189.75
	 10575 -3975 9375 -3975 8550 -3975
2 4 1 1 0 7 50 -1 -1 4.000 0 0 13 0 0 5
	 12975 -3450 12975 -6225 9975 -6225 9975 -3450 12975 -3450
2 1 0 1 0 7 49 -1 -1 0.000 0 0 -1 0 1 2
	2 1 1.00 53.87 107.74
	 10275 -7275 7650 -7275
2 1 2 1 0 7 50 -1 -1 3.000 0 0 -1 1 0 2
	2 1 1.00 60.00 120.00
	 2325 -5850 1959 -6449
2 4 2 1 0 7 49 -1 -1 3.000 0 0 10 0 0 5
	 7425 -1875 5400 -1875 5400 -2400 7425 -2400 7425 -1875
2 4 1 1 0 7 51 -1 -1 4.000 0 0 15 0 0 5
	 14400 2250 450 2250 450 -8025 14400 -8025 14400 2250
2 1 0 1 0 7 50 -1 -1 0.000 0 0 -1 0 1 2
	2 1 1.00 60.00 120.00
	 12600 -4125 14400 -4125
2 1 0 1 0 7 50 -1 -1 0.000 0 0 -1 0 1 2
	2 1 1.00 56.30 112.60
	 12000 -4875 14436 -4875
2 1 0 1 0 7 50 -1 -1 0.000 0 0 -1 0 1 2
	2 1 1.00 56.34 112.68
	 12000 -5850 14437 -5850
4 0 0 50 -1 18 14 0.0000 6 180 1260 7650 600 Q\\_m3$(f,arg)$\001
4 0 0 50 -1 18 14 0.0000 6 165 1260 7725 825 R\\_m3$(f,val)$\001
4 0 0 50 -1 18 12 0.0000 6 165 2430 5475 -6225 $\\forall m$ in \\{m1,m2,m4\\}\001
4 0 0 50 -1 18 12 0.0000 6 180 1530 5700 -6075 !GetProxy\\_$m(f)$\001
4 0 0 50 -1 18 12 0.0000 6 180 1800 5700 -5925 ?R\\_GetProxy\\_$m(p)$\001
4 0 0 50 -1 18 12 0.0000 6 180 1530 5100 -6900 !Call\\_$m(f,arg)$\001
4 0 0 50 -1 18 12 0.0000 6 165 2430 4275 -7125 $\\forall m$ in \\{m1,m2,m4\\}\001
4 0 0 50 -1 18 14 0.0000 6 180 2250 8700 -2700 !GetValue\\_m1$(fa,p,val)$\001
4 0 0 50 -1 18 14 0.0000 6 180 2250 8550 -2475 !GetValue\\_m2$(fa,p,val)$\001
4 0 0 50 -1 18 14 0.0000 6 180 2250 10950 -1800 !GetValue\\_m4$(fb,p,val)$\001
4 0 0 50 -1 18 14 0.0000 6 180 1440 8850 -525 !Q\\_m4$(fb,arg)$\001
4 0 0 50 -1 18 12 0.0000 6 180 1620 4125 -4725 !Call\\_m0$(f,arg)$\001
4 0 0 50 -1 18 12 0.0000 6 180 1440 2400 -4575 !GetProxy\\_m0(f)\001
4 0 0 47 -1 18 12 0.0000 6 180 1890 2400 -4350 ?R\\_GetProxy\\_m0$(q)$\001
4 0 0 49 -1 16 16 0.0000 6 225 825 5850 -2025 Queue\001
4 0 0 49 -1 18 16 0.0000 6 225 900 1650 -6675 Queue\001
4 0 0 50 -1 18 14 0.0000 6 165 1170 2700 -6750 Serve\\_*$(f)$\001
4 0 0 50 -1 18 14 0.0000 6 180 1530 1425 -3450 !Activ\\_m0$(f,q)$\001
4 0 0 50 -1 18 14 0.0000 6 180 1350 1725 -150 !R\\_m0$(q,val)$\001
4 2 0 49 -1 18 12 0.0000 6 180 1350 4650 -1125 !Q\\_m0$(q,arg)$\001
4 0 0 50 -1 18 14 0.0000 6 180 1350 -225 -6825 ?Q\\_m0$(f,arg)$\001
4 0 0 50 -1 18 14 0.0000 6 165 1350 -225 -525 !R\\_m0$(f,val)$\001
4 0 0 50 -1 18 14 0.0000 6 180 1620 7800 -4875 !Activ\\_m2$(fa,p)$\001
4 0 0 50 -1 18 14 0.0000 6 180 1620 7725 -5400 !Activ\\_m1$(fa,p)$\001
4 0 0 50 -1 18 14 0.0000 6 180 1620 9225 -4050 !Activ\\_m4$(fb,p)$\001
4 2 0 49 -1 18 12 0.0000 6 180 1350 5625 -3525 !Q\\_m0$(q,arg)$\001
4 0 0 50 -1 18 14 0.0000 6 180 2250 1050 -5625 ?Q\\_\\{m1,m2,m4\\}$(f,arg)$\001
4 0 0 50 -1 18 16 0.0000 4 270 1605 750 -7650 Composite1\001
4 0 0 50 -1 18 14 0.0000 6 180 1350 13515 -4950 ?R\\_m2$(p,val)$\001
4 0 0 50 -1 18 14 0.0000 6 180 1350 13515 -5925 ?R\\_m1$(p,val)$\001
4 0 0 50 -1 18 14 0.0000 6 180 1350 13500 -4200 ?R\\_m4$(p,val)$\001
4 0 0 50 -1 18 14 0.0000 6 165 1440 11925 -750 ?R\\_m4$(fb,val)$\001
4 0 0 50 -1 18 14 0.0000 6 165 1440 6900 -225 ?R\\_m*$(fa,val)$\001
4 0 0 50 -1 18 14 0.0000 6 165 990 1725 -2250 !R\\_m0$(f)$\001
