#FIG 3.2  Produced by xfig version 3.2.5b
Landscape
Center
Inches
Letter  
100.00
Single
-2
1200 2
0 32 #000000
6 2925 -5325 4350 -4650
2 4 0 1 0 7 50 -1 -1 0.000 0 0 15 0 0 5
	 4275 -4650 2925 -4650 2925 -5325 4275 -5325 4275 -4650
4 0 0 50 -1 18 15 0.0000 6 240 1245 3075 -4890 Deleg\\_m2\001
-6
6 1350 -2475 1800 -2325
4 2 9 50 -1 18 12 0.0000 6 150 450 1800 -2340 C16.2\001
-6
6 2235 -5250 2685 -5100
4 2 9 50 -1 18 12 0.0000 6 150 450 2685 -5115 C15.1\001
-6
6 375 -7425 1500 -6825
2 4 0 1 0 7 49 -1 -1 0.000 0 0 10 0 0 5
	 1500 -6825 375 -6825 375 -7425 1500 -7425 1500 -6825
4 0 0 49 -1 18 16 0.0000 6 225 900 525 -7050 Queue\001
-6
6 15 -4050 525 -3900
4 2 9 50 -1 18 12 0.0000 6 150 450 525 -3900 C16.3\001
-6
6 4950 -3075 5400 -2925
4 2 9 50 -1 18 12 0.0000 6 150 450 5400 -2940 C16.1\001
-6
6 3450 -4125 3900 -3975
4 2 9 50 -1 18 12 0.0000 6 150 450 3900 -3990 C15.2\001
-6
6 12165 -6375 12675 -6225
4 2 9 50 -1 18 12 0.0000 6 150 450 12675 -6225 C14.2\001
-6
6 10500 -9075 10950 -8925
4 2 9 50 -1 18 12 0.0000 6 150 450 10950 -8940 C14.1\001
-6
6 5925 -7875 6375 -7725
4 2 9 50 -1 18 12 0.0000 6 150 450 6375 -7740 C15.1\001
-6
6 4650 -7500 5100 -7350
4 2 9 50 -1 18 12 0.0000 6 150 450 5100 -7365 C15.4\001
-6
6 4125 -7650 4575 -7500
4 2 9 50 -1 18 12 0.0000 6 150 450 4575 -7515 C15.3\001
-6
6 2925 -8100 3975 -6600
2 4 0 1 0 7 50 -1 -1 0.000 0 0 16 0 0 5
	 3975 -6600 2925 -6600 2925 -8100 3975 -8100 3975 -6600
4 0 0 50 -1 18 16 0.0000 6 270 690 3135 -7163 Body\001
-6
6 900 -6525 1350 -6375
4 2 9 50 -1 18 12 0.0000 6 150 450 1350 -6390 C15.3\001
-6
6 525 -6300 975 -6150
4 2 9 50 -1 18 12 0.0000 6 150 450 975 -6165 C15.4\001
-6
6 8175 -7275 8625 -7125
4 2 9 50 -1 18 12 0.0000 6 150 450 8625 -7140 C15.2\001
-6
6 7950 -3750 8295 -3600
4 2 9 50 -1 18 12 0.0000 6 135 270 8295 -3600 C19\001
-6
1 1 0 1 0 7 50 -1 -1 0.000 1 0.0000 3150 -4050 150 75 3150 -4050 3300 -3975
1 1 0 1 0 7 50 -1 -1 0.000 1 0.0000 4650 -3000 150 75 4650 -3000 4800 -2925
1 1 0 1 0 7 50 -1 -1 0.000 1 0.0000 -225 -3975 150 75 -225 -3975 -75 -3900
1 1 0 1 0 7 50 -1 -1 0.000 1 0.0000 7725 -3900 150 75 7725 -3900 7875 -3825
1 1 0 1 0 7 50 -1 -1 0.000 1 0.0000 11100 -8850 150 75 11100 -8850 11250 -8775
1 1 0 1 0 7 50 -1 -1 0.000 1 0.0000 8175 -6975 150 75 8175 -6975 8325 -6900
2 1 0 1 0 7 50 -1 -1 0.000 0 0 -1 0 1 2
	2 1 1.00 60.00 120.00
	 6225 -8925 3975 -7950
2 1 0 1 0 7 50 -1 -1 0.000 0 0 -1 1 0 2
	0 0 1.00 60.00 120.00
	 1500 -7200 2925 -7725
2 1 0 1 0 7 50 -1 -1 4.000 0 0 -1 1 0 2
	1 1 1.00 60.00 120.00
	 2400 -1950 1650 -2775
2 4 1 1 0 7 50 -1 -1 4.000 0 0 7 0 0 5
	 8025 -1575 8025 -2400 2400 -2400 2400 -1575 8025 -1575
2 1 0 1 0 7 50 -1 -1 0.000 0 0 -1 0 1 2
	2 1 1.00 60.00 120.00
	 9075 -6600 8325 -6900
2 1 0 1 0 7 50 -1 -1 0.000 0 0 -1 0 1 2
	2 1 1.00 60.00 120.00
	 7275 -8475 8175 -7050
2 1 0 1 0 7 50 -1 -1 0.000 0 0 -1 0 1 2
	2 1 1.00 60.00 120.00
	 10950 -8850 7575 -8850
2 1 0 1 0 7 50 -1 -1 0.000 0 0 -1 0 1 2
	2 1 1.00 60.00 120.00
	 4875 -2400 4650 -2925
2 1 0 1 0 7 50 -1 -1 0.000 0 0 -1 0 1 3
	2 1 1.00 60.00 120.00
	 3075 -4125 600 -4725 450 -5175
2 1 0 1 0 7 50 -1 -1 0.000 0 0 -1 0 1 2
	2 1 1.00 60.00 120.00
	 4500 -3000 2700 -3000
2 1 0 1 0 7 50 -1 -1 4.000 0 0 -1 1 0 2
	1 1 1.00 60.00 120.00
	 -150 -4050 300 -5175
2 1 0 1 0 7 50 -1 -1 0.000 0 0 -1 0 1 2
	2 1 1.00 60.00 120.00
	 375 -7125 -675 -7125
2 1 0 1 0 7 50 -1 -1 0.000 0 0 -1 0 1 2
	2 1 1.00 60.00 120.00
	 6525 -6000 7650 -3975
2 1 0 1 0 7 50 -1 -1 0.000 0 0 -1 1 0 2
	1 1 1.00 60.00 120.00
	 7725 -3825 7725 -2400
2 1 0 1 0 7 50 -1 -1 0.000 0 0 -1 1 0 2
	1 1 1.00 60.00 120.00
	 9900 -5625 7800 -3975
2 1 0 1 0 7 50 -1 -1 0.000 0 0 -1 1 0 2
	1 1 1.00 60.00 120.00
	 225 -3525 -150 -3900
2 1 0 1 0 7 50 -1 -1 0.000 0 0 -1 1 0 2
	1 1 1.00 60.00 120.00
	 10650 -7200 11100 -8775
2 1 0 1 0 7 50 -1 -1 0.000 0 0 -1 1 0 2
	1 1 1.00 60.00 120.00
	 11250 -8850 12750 -8850
2 1 0 1 0 7 50 -1 -1 0.000 0 0 -1 1 0 2
	1 1 1.00 60.00 120.00
	 12750 -6150 11475 -6150
2 1 0 1 0 7 50 -1 -1 0.000 0 0 -1 1 0 2
	1 1 1.00 60.00 120.00
	 -375 -3975 -675 -3975
2 1 0 1 0 7 50 -1 -1 0.000 0 0 -1 0 1 2
	2 1 1.00 60.00 120.00
	 3525 -5325 3525 -6600
2 1 0 1 0 7 50 -1 -1 0.000 0 0 -1 1 0 2
	1 1 1.00 60.00 120.00
	 7275 -6750 8025 -6975
2 1 0 1 0 7 50 -1 -1 0.000 0 0 -1 1 0 3
	2 1 1.00 60.00 120.00
	 2925 -5025 1650 -5025 1500 -5175
2 1 0 1 0 7 50 -1 -1 0.000 0 0 -1 1 0 2
	2 1 1.00 60.00 120.00
	 3225 -4125 3825 -4650
2 1 0 1 0 7 50 -1 -1 0.000 0 0 -1 1 0 2
	2 1 1.00 60.00 120.00
	 3975 -4650 4650 -3075
2 1 0 1 0 7 50 -1 -1 0.000 0 0 -1 1 0 2
	2 1 1.00 60.00 120.00
	 3075 -3975 2700 -3675
2 1 0 1 0 7 50 -1 -1 0.000 0 0 -1 1 0 2
	2 1 1.00 60.00 120.00
	 2925 -6750 2025 -5925
2 4 1 1 0 7 51 -1 -1 4.000 0 0 15 0 0 5
	 12750 -1350 -675 -1350 -675 -9450 12750 -9450 12750 -1350
2 4 0 1 0 7 50 -1 -1 0.000 0 0 15 0 0 5
	 7575 -8475 6225 -8475 6225 -9150 7575 -9150 7575 -8475
2 1 0 1 0 7 50 -1 -1 0.000 0 0 -1 0 1 2
	2 1 1.00 60.00 120.00
	 6450 -7275 6623 -8479
2 1 0 1 0 7 50 -1 -1 0.000 0 0 -1 1 0 2
	1 1 1.00 60.00 120.00
	 3975 -7350 5320 -7159
2 1 0 1 0 7 50 -1 -1 0.000 0 0 -1 1 0 3
	1 1 1.00 60.00 120.00
	 6525 -2400 5250 -5550 1500 -6975
2 4 1 1 0 7 50 -1 -1 4.000 0 0 13 0 0 5
	 11505 -5625 11505 -7200 9030 -7200 9030 -5625 11505 -5625
2 4 1 1 0 7 50 -1 -1 4.000 0 0 13 0 0 5
	 7275 -6000 7275 -7275 5325 -7275 5325 -6000 7275 -6000
2 4 1 1 0 7 50 -1 -1 4.000 0 0 13 0 0 5
	 2700 -2775 2700 -3825 225 -3825 225 -2775 2700 -2775
2 4 1 1 0 7 50 -1 -1 4.000 0 0 13 0 0 5
	 2100 -5175 2100 -5925 150 -5925 150 -5175 2100 -5175
2 4 0 1 0 7 50 -1 20 0.000 0 0 15 0 0 5
	 11175 -6075 9180 -6075 9180 -6750 11175 -6750 11175 -6075
2 4 0 1 0 7 51 -1 -1 0.000 0 0 15 0 0 5
	 11250 -6000 9255 -6000 9255 -6675 11250 -6675 11250 -6000
2 4 0 1 0 7 50 -1 -1 0.000 0 0 12 0 0 5
	 7125 -6450 7125 -6825 5550 -6825 5550 -6450 7125 -6450
2 4 0 1 0 7 50 -1 -1 0.000 0 0 12 0 0 5
	 1725 -5250 1725 -5625 225 -5625 225 -5250 1725 -5250
2 4 0 1 0 7 50 -1 20 0.000 0 0 15 0 0 5
	 2325 -3000 300 -3000 300 -3525 2325 -3525 2325 -3000
2 4 0 1 0 7 51 -1 -1 0.000 0 0 15 0 0 5
	 2400 -2925 375 -2925 375 -3450 2400 -3450 2400 -2925
4 0 0 50 -1 18 16 0.0000 6 270 2280 3825 -1950 Sub-components\001
4 0 0 50 -1 18 16 0.0000 4 270 3900 -450 -9075 Multicast Composite Example\001
4 0 0 50 -1 18 12 0.0000 6 180 1080 2475 -4425 New\\_m2$(p)$\001
4 0 0 50 -1 18 12 0.0000 6 180 1530 4575 -3300 !Q\\_m2$(p,G,arg)$\001
4 0 0 50 -1 18 12 0.0000 6 165 720 3375 -3225 !MC$(G)$\001
4 0 0 50 -1 18 12 0.0000 6 165 1440 -1500 -4125 !R\\_m2$(f,vect)$\001
4 0 0 50 -1 18 12 0.0000 6 180 1530 -1050 -4725 !Recycle\\_m2$(p)$\001
4 0 0 50 -1 18 12 0.0000 6 180 1980 -1425 -6900 ?Q\\_Unbind\\_Itf$_j(t)$\001
4 0 0 50 -1 18 12 0.0000 6 180 1350 -1425 -7500 ?Q\\_m2$(f,arg)$\001
4 0 0 50 -1 18 12 0.0000 6 180 1800 -1425 -7200 ?Q\\_Bind\\_Itf$_j(t)$\001
4 0 0 50 -1 18 12 0.0000 6 180 1710 7050 -3000 ?R\\_m1$(p,fi,vect)$\001
4 0 0 50 -1 18 12 0.0000 6 180 1530 750 -2100 !R\\_m2$(p,k,val)$\001
4 0 0 50 -1 18 12 0.0000 6 180 1440 1200 -4125 New\\_m2$(p,f,G)$\001
4 0 0 50 -1 18 12 0.0000 6 180 1530 1050 -4800 GetProxy\\_m2$(f)$\001
4 0 0 50 -1 18 12 0.0000 6 180 1530 11475 -9000 !Q\\_m1$(p,G,arg)$\001
4 0 0 50 -1 18 12 0.0000 6 165 720 11025 -8100 !MC$(G)$\001
4 0 0 50 -1 18 12 0.0000 6 180 1530 11625 -5925 R\\_m1$(p,id,val)$\001
4 0 0 50 -1 18 12 0.0000 6 180 1710 9600 -5175 !R\\_m1$(p,fi,vect)$\001
4 0 0 50 -1 18 15 0.0000 6 240 1245 6300 -8700 Deleg\\_m1\001
4 0 0 50 -1 18 12 0.0000 6 180 1530 7350 -6600 New\\_m1$(p,fi,G)$\001
4 0 0 50 -1 18 12 0.0000 6 180 1080 7500 -8175 New\\_m1$(p)$\001
4 0 0 50 -1 18 12 0.0000 6 180 1620 4950 -7950 GetProxy\\_m1$(fi)$\001
4 0 0 50 -1 18 12 0.0000 6 165 1530 3975 -6750 Unbind\\_Itf1$(t)$\001
4 0 0 50 -1 18 12 0.0000 6 165 1350 3975 -6975 Bind\\_Itf1$(t)$\001
4 0 0 50 -1 18 12 0.0000 6 180 1710 1125 -7650 Serve\\_m$_i(f,arg)$\001
4 0 0 50 -1 18 12 0.0000 6 180 2070 750 -7875 Serve\\_bind\\_Itf$_j(t)$\001
4 0 0 50 -1 18 12 0.0000 6 180 2250 525 -8100 Serve\\_unbind\\_Itf$_j(t)$\001
4 0 0 50 -1 18 12 0.0000 6 180 1530 6300 -5475 !Recycle\\_m1$(p)$\001
4 0 0 49 -1 18 12 0.0000 6 180 1620 2775 -5550 !Call\\_m2$(f,arg)$\001
4 0 0 50 -1 18 12 0.0000 6 165 1350 1425 -6375 Bind\\_Itf2$(t)$\001
4 0 0 50 -1 18 12 0.0000 6 165 1530 1050 -6150 Unbind\\_Itf2$(t)$\001
4 0 0 49 -1 18 12 0.0000 6 180 1710 3900 -8625 !Call\\_m1$(fi,arg)$\001
4 0 0 50 -1 18 16 0.0000 6 210 420 10680 -6900 Itf1\001
4 0 0 50 -1 18 16 0.0000 6 270 2520 9255 -6375 GrProxyC\\_m1$[p]$\001
4 0 0 50 -1 18 16 0.0000 6 210 420 6450 -6975 Itf1\001
4 0 0 50 -1 18 16 0.0000 6 270 1545 5625 -6544 GrPMC\\_m1\001
4 0 0 50 -1 18 16 0.0000 6 210 420 2175 -3525 Itf2\001
4 0 0 50 -1 18 16 0.0000 6 270 2520 375 -3150 GrProxyC\\_m2$[p]$\001
4 0 0 50 -1 18 16 0.0000 6 210 420 1500 -5625 Itf2\001
4 0 0 50 -1 18 16 0.0000 6 270 1545 300 -5325 GrPMC\\_m2\001
4 0 0 50 -1 18 12 0.0000 6 180 1440 5700 -2475 !Q\\_m1$(fi,arg)$\001
4 0 0 50 -1 18 12 0.0000 6 180 1350 8025 -3825 R\\_m1$(p,vect)$\001
